{
  "errors": [],
  "warnings": [],
  "version": "4.44.1",
  "hash": "3a5b40d75cd737517fa4",
  "publicPath": "",
  "outputPath": "/home/arsenalfc/0_stuff/0_work/practice-temp/react-15-old-redux-saga-2020-ssr-practice-pdf",
  "assetsByChunkName": {
    "main": "dist/server.js"
  },
  "assets": [
    {
      "name": "dist/server.js",
      "size": 120967,
      "chunks": [
        "main"
      ],
      "chunkNames": [
        "main"
      ],
      "info": {},
      "emitted": false
    }
  ],
  "filteredAssets": 0,
  "entrypoints": {
    "main": {
      "chunks": [
        "main"
      ],
      "assets": [
        "dist/server.js"
      ],
      "children": {},
      "childAssets": {}
    }
  },
  "namedChunkGroups": {
    "main": {
      "chunks": [
        "main"
      ],
      "assets": [
        "dist/server.js"
      ],
      "children": {},
      "childAssets": {}
    }
  },
  "logging": {
    "webpack.buildChunkGraph.visitModules": {
      "entries": [],
      "filteredEntries": 2,
      "debug": false
    }
  },
  "children": []
}